{
    "help": "https://data.bangkok.go.th/api/3/action/help_show?name=datastore_search",
    "success": true,
    "result": {
        "include_total": true,
        "resource_id": "6cc7a43f-52b3-4381-9a8f-2b8a35c3174a",
        "fields": [
            {
                "type": "int",
                "id": "_id"
            },
            {
                "type": "numeric",
                "id": "\u0e25\u0e33\u0e14\u0e31\u0e1a"
            },
            {
                "type": "text",
                "id": "\u0e23\u0e32\u0e22\u0e25\u0e30\u0e40\u0e2d\u0e35\u0e22\u0e14"
            },
            {
                "type": "text",
                "id": "\u0e2a\u0e33\u0e19\u0e31\u0e01\u0e07\u0e32\u0e19\u0e40\u0e02\u0e15"
            },
            {
                "type": "text",
                "id": "\u0e2a\u0e19.\u0e1e\u0e37\u0e49\u0e19\u0e17\u0e35\u0e48"
            },
            {
                "type": "text",
                "id": "\u0e1e\u0e34\u0e01\u0e31\u0e14"
            },
            {
                "type": "text",
                "id": "\u0e1e\u0e37\u0e49\u0e19\u0e17\u0e35\u0e48\u0e04\u0e27\u0e32\u0e21\u0e23\u0e31\u0e1a\u0e1c\u0e34\u0e14\u0e0a\u0e2d\u0e1a"
            }
        ],
        "records_format": "objects",
        "total_was_estimated": false,
        "records": [
            {
                "_id": 101,
                "ลำดับ": 101,
                "รายละเอียด": "ปากซอยคู้บอน 6",
                "สำนักงานเขต": "คันนายาว",
                "สน.พื้นที่": "คันนายาว",
                "พิกัด": "13.8425543, 100.6628298",
                "พื้นที่ความรับผิดชอบ": "กรุงเทพมหานคร"
            },
            {
                "_id": 102,
                "ลำดับ": 102,
                "รายละเอียด": "ถนนเพชรเกษม บริเวณเพชรเกษม ซอย 46 ถึงเพชรเกษม ซอย 48/1",
                "สำนักงานเขต": "ภาษีเจริญ",
                "สน.พื้นที่": "ภาษีเจริญ",
                "พิกัด": "13.715183, 100.444138",
                "พื้นที่ความรับผิดชอบ": "กรุงเทพมหานคร"
            },
            {
                "_id": 103,
                "ลำดับ": 103,
                "รายละเอียด": "แยกปทุมวัน (ถนนพระรามที่ 1 ตัดถนนพญาไท)",
                "สำนักงานเขต": "ปทุมวัน",
                "สน.พื้นที่": "ปทุมวัน",
                "พิกัด": "13.746226,100.530878",
                "พื้นที่ความรับผิดชอบ": "กรุงเทพมหานคร"
            },
            {
                "_id": 104,
                "ลำดับ": 104,
                "รายละเอียด": "แยกกล้วยน้ำไท (ถนนพระราม 4 ตัดถนนกล้วยน้ำไท)",
                "สำนักงานเขต": "คลองเตย",
                "สน.พื้นที่": "คลองตัน,ทองหล่อ",
                "พิกัด": "13.712980, 100.584032",
                "พื้นที่ความรับผิดชอบ": "กรุงเทพมหานคร"
            },
            {
                "_id": 105,
                "ลำดับ": 105,
                "รายละเอียด": "ถนนบางขุนเทียน-ชายทะเล (บริเวณซอยเทียนทะเล 7)",
                "สำนักงานเขต": "บางขุนเทียน",
                "สน.พื้นที่": "ท่าข้าม",
                "พิกัด": "13.641474, 100.432217",
                "พื้นที่ความรับผิดชอบ": "กรุงเทพมหานคร"
            },
            {
                "_id": 106,
                "ลำดับ": 106,
                "รายละเอียด": "ถนนบางขุนเทียน-ชายทะเล (บริเวณซอยเทียนทะเล 11 - 15)",
                "สำนักงานเขต": "บางขุนเทียน",
                "สน.พื้นที่": "ท่าข้าม",
                "พิกัด": "13.634970, 100.433345",
                "พื้นที่ความรับผิดชอบ": "กรุงเทพมหานคร"
            },
            {
                "_id": 107,
                "ลำดับ": 107,
                "รายละเอียด": "แยกรัชดา-สุทธิสาร",
                "สำนักงานเขต": "ดินแดง",
                "สน.พื้นที่": "สุทธิสาร",
                "พิกัด": "13.789746, 100.574237",
                "พื้นที่ความรับผิดชอบ": "กรุงเทพมหานคร"
            },
            {
                "_id": 108,
                "ลำดับ": 108,
                "รายละเอียด": "ถนนรัชดาภิเษก ช่วงใกล้ทางขึ้นลงทางด่วนฯ",
                "สำนักงานเขต": "จตุจักร",
                "สน.พื้นที่": "ประชาชื่น",
                "พิกัด": "13.830096, 100.541179",
                "พื้นที่ความรับผิดชอบ": "กรุงเทพมหานคร"
            },
            {
                "_id": 109,
                "ลำดับ": 109,
                "รายละเอียด": "สี่แยกบางพลัด",
                "สำนักงานเขต": "บางพลัด",
                "สน.พื้นที่": "บางพลัด",
                "พิกัด": "13.784602, 100.494450",
                "พื้นที่ความรับผิดชอบ": "กรุงเทพมหานคร"
            },
            {
                "_id": 110,
                "ลำดับ": 110,
                "รายละเอียด": "ถนนพระราม 4 ช่วงคลองเตย",
                "สำนักงานเขต": "คลองเตย",
                "สน.พื้นที่": "ทุ่งมหาเมฆ,ทองหล่อ",
                "พิกัด": "13.720687, 100.557758",
                "พื้นที่ความรับผิดชอบ": "กรุงเทพมหานคร"
            },
            {
                "_id": 111,
                "ลำดับ": 111,
                "รายละเอียด": "แยกรามคำแหง (ถนนพระราม 9 - ถนนรามคำแหง)",
                "สำนักงานเขต": "บางกะปิ",
                "สน.พื้นที่": "หัวหมาก",
                "พิกัด": "13.747478, 100.605557",
                "พื้นที่ความรับผิดชอบ": "กรุงเทพมหานคร"
            },
            {
                "_id": 112,
                "ลำดับ": 112,
                "รายละเอียด": "ซอยโรงพยาบาลปิยะเวท",
                "สำนักงานเขต": "ห้วยขวาง",
                "สน.พื้นที่": "มักกะสัน, ห้วยขวาง",
                "พิกัด": "13.754398, 100.579627",
                "พื้นที่ความรับผิดชอบ": "กรุงเทพมหานคร"
            },
            {
                "_id": 113,
                "ลำดับ": 113,
                "รายละเอียด": "แยกศรีอุดม (ถนนศรีนครินทร์ - ถนนเฉลิมพระเกียรติ ร.9)",
                "สำนักงานเขต": "ประเวศ",
                "สน.พื้นที่": "พระโขนง,บางนา,ประเวศ",
                "พิกัด": "13.677827, 100.646036",
                "พื้นที่ความรับผิดชอบ": "กรุงเทพมหานคร"
            },
            {
                "_id": 114,
                "ลำดับ": 114,
                "รายละเอียด": "แยกอโศก-เพชรบุรี",
                "สำนักงานเขต": "ราชเทวี",
                "สน.พื้นที่": "มักกะสัน",
                "พิกัด": "13.748989, 100.563358",
                "พื้นที่ความรับผิดชอบ": "กรุงเทพมหานคร"
            },
            {
                "_id": 115,
                "ลำดับ": 115,
                "รายละเอียด": "แยกดินแดง (ถ.ดินแดง - ถ.วิภาวดีรังสิต)",
                "สำนักงานเขต": "ดินแดง",
                "สน.พื้นที่": "ดินแดง",
                "พิกัด": "13.763922, 100.548095",
                "พื้นที่ความรับผิดชอบ": "กรุงเทพมหานคร"
            },
            {
                "_id": 116,
                "ลำดับ": 116,
                "รายละเอียด": "แยกผังเมือง และบนสะพานข้ามแยก อสมท.",
                "สำนักงานเขต": "ห้วยขวาง",
                "สน.พื้นที่": "ห้วยขวาง",
                "พิกัด": "13.755550, 100.573383",
                "พื้นที่ความรับผิดชอบ": "กรุงเทพมหานคร"
            },
            {
                "_id": 117,
                "ลำดับ": 117,
                "รายละเอียด": "สี่แยกบ้านแขก (ถนนประชาธิปก - ถนนอิสรภาพ)",
                "สำนักงานเขต": "ธนบุรี",
                "สน.พื้นที่": "บางยี่เรือ,บุปผาราม",
                "พิกัด": "13.730929, 100.494686",
                "พื้นที่ความรับผิดชอบ": "กรุงเทพมหานคร"
            },
            {
                "_id": 118,
                "ลำดับ": 118,
                "รายละเอียด": "ถนนดินแดง ใกล้สามเหลี่ยมดินแดง",
                "สำนักงานเขต": "ราชเทวี",
                "สน.พื้นที่": "พญาไท",
                "พิกัด": "13.763400, 100.545385",
                "พื้นที่ความรับผิดชอบ": "กรุงเทพมหานคร"
            },
            {
                "_id": 119,
                "ลำดับ": 119,
                "รายละเอียด": "ถนนพระราม 9 บริเวณข้ามคลองชวดใหญ่",
                "สำนักงานเขต": "ห้วยขวาง",
                "สน.พื้นที่": "วังทองหลาง,ห้วยขวาง",
                "พิกัด": "13.754742, 100.581257",
                "พื้นที่ความรับผิดชอบ": "กรุงเทพมหานคร"
            },
            {
                "_id": 120,
                "ลำดับ": 120,
                "รายละเอียด": "สะพานสูงบางซื่อ",
                "สำนักงานเขต": "บางซื่อ",
                "สน.พื้นที่": "เตาปูน",
                "พิกัด": "13.804541, 100.535867",
                "พื้นที่ความรับผิดชอบ": "กรุงเทพมหานคร"
            },
            {
                "_id": 121,
                "ลำดับ": 121,
                "รายละเอียด": "ถนนสุขุมวิท ตัดถนนอ่อนนุช (สุขุมวิท 77)",
                "สำนักงานเขต": "คลองเตย",
                "สน.พื้นที่": "พระโขนง",
                "พิกัด": "13.709104, 100.599430",
                "พื้นที่ความรับผิดชอบ": "กรุงเทพมหานคร"
            },
            {
                "_id": 122,
                "ลำดับ": 122,
                "รายละเอียด": "แยกพระราม 9 (ถนนพระราม 9 - ถนนรัชดาภิเษก)",
                "สำนักงานเขต": "ห้วยขวาง",
                "สน.พื้นที่": "ห้วยขวาง",
                "พิกัด": "13.756141, 100.564988",
                "พื้นที่ความรับผิดชอบ": "กรุงเทพมหานคร"
            },
            {
                "_id": 123,
                "ลำดับ": 123,
                "รายละเอียด": "ถนนเพชรบุรีตัดใหม่ (โรงเรียนวัดใหม่ช่องลม - ปั้มน้ำมันเชลล์)",
                "สำนักงานเขต": "ห้วยขวาง",
                "สน.พื้นที่": "มักกะสัน",
                "พิกัด": "13.746894,100.575076",
                "พื้นที่ความรับผิดชอบ": "กรุงเทพมหานคร"
            },
            {
                "_id": 124,
                "ลำดับ": 124,
                "รายละเอียด": "ถนนรัชดาภิษก ใกล้แยกรัชโยธิน (ซอยรัชดาฯ 44)",
                "สำนักงานเขต": "จตุจักร",
                "สน.พื้นที่": "พหลโยธิน",
                "พิกัด": "13.825968, 100.570188",
                "พื้นที่ความรับผิดชอบ": "กรุงเทพมหานคร"
            },
            {
                "_id": 125,
                "ลำดับ": 125,
                "รายละเอียด": "แยกมักกะสัน (ถนนราชปรารถ - ถนนศรีอยุธยา)",
                "สำนักงานเขต": "ราชเทวี",
                "สน.พื้นที่": "พญาไท",
                "พิกัด": "13.756118, 100.542398",
                "พื้นที่ความรับผิดชอบ": "กรุงเทพมหานคร"
            },
            {
                "_id": 126,
                "ลำดับ": 126,
                "รายละเอียด": "ถนนพัฒนาการ อุโมงค์ถนนพัฒนาการ",
                "สำนักงานเขต": "สวนหลวง",
                "สน.พื้นที่": "คลองตัน",
                "พิกัด": "13.736468, 100.616351",
                "พื้นที่ความรับผิดชอบ": "กรุงเทพมหานคร"
            }
        ],
        "limit": 100,
        "offset": 100,
        "_links": {
            "start": "/api/3/action/datastore_search?resource_id=6cc7a43f-52b3-4381-9a8f-2b8a35c3174a",
            "next": "/api/3/action/datastore_search?offset=200&resource_id=6cc7a43f-52b3-4381-9a8f-2b8a35c3174a"
        },
        "total": 126,
        "total_estimation_threshold": null
    }
}